<?xml version="1.0" encoding="utf-8"?><!-- Uploaded to: SVG Repo, www.svgrepo.com, Generator: SVG Repo Mixer Tools -->
<svg 
  xmlns="http://www.w3.org/2000/svg"
  width="24"
  height="24"
  viewBox="0 0 24 24"
  fill="none"
  stroke="#0D6EFD"
  stroke-width="1"
  stroke-linecap="round"
  stroke-linejoin="round"
>
  <path d="M14 16H9m10 0h3v-3.15a1 1 0 00-.84-.99L16 11l-2.7-3.6a1 1 0 00-.8-.4H5.24a2 2 0 00-1.8 1.1l-.8 1.63A6 6 0 002 12.42V16h2" />
  <circle cx="6.5" cy="16.5" r="2.5" />
  <circle cx="16.5" cy="16.5" r="2.5" />
</svg>